<svg xmlns="http://www.w3.org/2000/svg" width="28" height="28" viewBox="0 0 28 28">
    <g fill="none" fill-rule="evenodd">
        <g fill="#FFF">
            <g>
                <g>
                    <g>
                        <path d="M3.16 3.362c.91-.897 2.052-.897 2.967-.006.565.554 1.118 1.119 1.678 1.678.542.548 1.083 1.084 1.625 1.632.956.96.956 2.08.006 3.035-.682.688-1.357 1.375-2.05 2.045-.181.18-.199.327-.106.548.46 1.095 1.12 2.068 1.859 2.977 1.492 1.83 3.176 3.455 5.186 4.72.431.268.909.466 1.357.71.228.129.385.088.571-.104.682-.7 1.376-1.387 2.069-2.074.909-.904 2.05-.904 2.966 0 1.113 1.107 2.225 2.214 3.333 3.326.926.933.92 2.075-.012 3.019-.63.635-1.3 1.24-1.894 1.905-.868.973-1.952 1.288-3.199 1.218-1.812-.1-3.478-.7-5.086-1.48-3.572-1.737-6.625-4.143-9.183-7.184-1.894-2.25-3.455-4.702-4.48-7.464C.264 10.529-.09 9.159.02 7.709c.07-.892.402-1.655 1.06-2.279.712-.676 1.382-1.38 2.08-2.068zm11.002 2.231c2.086.292 3.98 1.236 5.477 2.733 1.416 1.422 2.348 3.21 2.686 5.186l-2.15.367c-.262-1.527-.98-2.913-2.075-4.009-1.159-1.16-2.627-1.888-4.241-2.115zM14.447 0c3.467.484 6.608 2.05 9.09 4.533 2.354 2.36 3.898 5.331 4.463 8.606l-2.15.367c-.484-2.826-1.818-5.395-3.851-7.429-2.145-2.138-4.86-3.496-7.855-3.915z" transform="translate(-54 -4484) translate(0 4007) translate(54 473) translate(0 4)"/>
                    </g>
                </g>
            </g>
        </g>
    </g>
</svg>
